<?xml version="1.0" encoding="utf-8"?>
<!-- Generator: Adobe Illustrator 16.0.0, SVG Export Plug-In . SVG Version: 6.00 Build 0)  -->
<!DOCTYPE svg PUBLIC "-//W3C//DTD SVG 1.1//EN" "http://www.w3.org/Graphics/SVG/1.1/DTD/svg11.dtd">
<svg version="1.1" id="Layer_1" xmlns="http://www.w3.org/2000/svg" xmlns:xlink="http://www.w3.org/1999/xlink" x="0px" y="0px"
	 width="43.34px" height="43.51px" viewBox="0 0 43.34 43.51" enable-background="new 0 0 43.34 43.51" xml:space="preserve">
<g>
	<g>
		<path fill-rule="evenodd" clip-rule="evenodd" fill="#FFFFFF" d="M21.67,0C9.73,0,0,9.77,0,21.75c0,11.989,9.73,21.76,21.67,21.76
			c11.939,0,21.67-9.771,21.67-21.76C43.34,9.77,33.609,0,21.67,0z"/>
	</g>
</g>
<g>
	<polygon fill-rule="evenodd" clip-rule="evenodd" fill="#4664AE" points="22.5,17.71 21.67,16.02 20.84,17.71 18.98,17.98 
		20.32,19.3 20.01,21.17 21.67,20.29 23.33,21.17 23.02,19.3 24.359,17.98 	"/>
	<path fill-rule="evenodd" clip-rule="evenodd" fill="#4664AE" d="M17.51,24.42c-0.76,0-0.86-0.36-0.86-0.36l-2.98,5.891l2.39-0.271
		l1.32,2c0,0,2.75-5.78,2.75-5.739C18.7,25.899,19.27,24.45,17.51,24.42z"/>
	<path fill-rule="evenodd" clip-rule="evenodd" fill="#4664AE" d="M26.65,24.29c-2.17,0.23-1.73,0.77-2.23,1.199
		c-0.57,0.61-1.279,0.49-1.279,0.49l3.35,5.82l0.83-2.16l2.35,0.311L26.65,24.29z"/>
	<path fill-rule="evenodd" clip-rule="evenodd" fill="#4664AE" d="M21.67,22.59c-2.19,0-3.97-1.79-3.97-4s1.78-4,3.97-4
		c2.189,0,3.971,1.79,3.971,4S23.859,22.59,21.67,22.59z M24.12,24.78c0.37-0.621,0.92-0.94,1.649-0.951
		c0.721-0.01,1.09-0.379,1.101-1.109c0.01-0.73,0.319-1.28,0.94-1.66c0.629-0.37,0.76-0.87,0.409-1.51c-0.36-0.64-0.36-1.28,0-1.91
		c0.351-0.64,0.22-1.14-0.409-1.52c-0.621-0.37-0.931-0.92-0.94-1.66c-0.011-0.72-0.38-1.09-1.101-1.1
		c-0.729-0.01-1.279-0.33-1.649-0.96s-0.87-0.76-1.5-0.4c-0.64,0.35-1.26,0.35-1.9,0c-0.63-0.36-1.13-0.23-1.5,0.4
		c-0.37,0.63-0.92,0.95-1.64,0.96c-0.73,0.01-1.1,0.38-1.11,1.1c-0.01,0.74-0.32,1.29-0.94,1.66c-0.63,0.38-0.77,0.88-0.41,1.52
		c0.36,0.63,0.36,1.27,0,1.91c-0.36,0.64-0.22,1.14,0.41,1.51c0.62,0.38,0.93,0.93,0.94,1.66c0.01,0.73,0.38,1.1,1.11,1.109
		c0.72,0.011,1.27,0.33,1.64,0.951c0.37,0.629,0.87,0.77,1.5,0.41c0.64-0.351,1.26-0.351,1.9,0
		C23.25,25.55,23.75,25.409,24.12,24.78z"/>
</g>
</svg>
