<?xml version="1.0" encoding="utf-8"?>
<!-- Generator: Adobe Illustrator 16.0.0, SVG Export Plug-In . SVG Version: 6.00 Build 0)  -->
<!DOCTYPE svg PUBLIC "-//W3C//DTD SVG 1.1//EN" "http://www.w3.org/Graphics/SVG/1.1/DTD/svg11.dtd">
<svg version="1.1" id="Layer_1" xmlns="http://www.w3.org/2000/svg" xmlns:xlink="http://www.w3.org/1999/xlink" x="0px" y="0px"
	 width="17px" height="20px" viewBox="0 0 17 20" enable-background="new 0 0 17 20" xml:space="preserve">
<g>
	<g>
		<g>
			<path fill-rule="evenodd" clip-rule="evenodd" fill="#4664AE" d="M8.5,0C3.811,0,0,3.95,0,8.8c0,0.551,0.05,1.11,0.15,1.65
				l0.06,0.3c0.13,0.59,0.319,1.181,0.569,1.73c0.91,2.24,2.931,3.709,7.341,7.379C8.23,19.95,8.37,20,8.5,20s0.27-0.05,0.38-0.141
				c4.41-3.67,6.431-5.139,7.341-7.379c0.25-0.55,0.439-1.13,0.569-1.73l0.06-0.3C16.95,9.91,17,9.351,17,8.8
				C16.99,3.95,13.18,0,8.5,0z"/>
			<path fill-rule="evenodd" clip-rule="evenodd" fill="#FFFFFF" d="M8.5,1.12c-4.061,0-7.37,3.43-7.37,7.64
				c0,4.2,3.31,7.631,7.37,7.631s7.37-3.431,7.37-7.631C15.87,4.55,12.561,1.12,8.5,1.12z"/>
		</g>
	</g>
	<g>
		<polygon fill-rule="evenodd" clip-rule="evenodd" fill="#4664AE" points="8.859,6.66 8.5,5.899 8.141,6.66 7.32,6.78 7.91,7.38 
			7.77,8.22 8.5,7.819 9.23,8.22 9.09,7.38 9.68,6.78 		"/>
		<path fill-rule="evenodd" clip-rule="evenodd" fill="#4664AE" d="M6.68,9.681c-0.33,0-0.38-0.16-0.38-0.16L5,12.17l1.04-0.12
			l0.58,0.9c0,0,1.21-2.6,1.21-2.59C7.2,10.351,7.45,9.69,6.68,9.681z"/>
		<path fill-rule="evenodd" clip-rule="evenodd" fill="#4664AE" d="M10.68,9.62C9.73,9.72,9.92,9.97,9.7,10.16
			c-0.25,0.271-0.56,0.22-0.56,0.22L10.609,13l0.361-0.971L12,12.17L10.68,9.62z"/>
		<path fill-rule="evenodd" clip-rule="evenodd" fill="#4664AE" d="M8.5,8.851c-0.96,0-1.74-0.801-1.74-1.791c0-1,0.78-1.8,1.74-1.8
			s1.74,0.8,1.74,1.8C10.24,8.05,9.46,8.851,8.5,8.851z M9.57,9.84c0.16-0.28,0.4-0.42,0.72-0.43c0.319,0,0.479-0.17,0.479-0.5
			c0.01-0.33,0.15-0.57,0.42-0.74C11.46,8,11.52,7.771,11.37,7.49c-0.16-0.29-0.16-0.58,0-0.86c0.149-0.29,0.09-0.52-0.181-0.68
			c-0.27-0.17-0.41-0.42-0.42-0.75c0-0.33-0.16-0.5-0.479-0.5s-0.56-0.15-0.72-0.43C9.41,3.99,9.189,3.931,8.92,4.09
			c-0.279,0.16-0.561,0.16-0.84,0c-0.27-0.159-0.49-0.1-0.65,0.181C7.27,4.55,7.029,4.7,6.71,4.7S6.23,4.87,6.23,5.2
			c-0.01,0.33-0.15,0.58-0.42,0.75C5.54,6.11,5.48,6.34,5.63,6.63c0.16,0.28,0.16,0.57,0,0.86C5.48,7.771,5.54,8,5.811,8.17
			c0.27,0.17,0.41,0.41,0.42,0.74c0,0.33,0.16,0.5,0.479,0.5C7.029,9.42,7.27,9.56,7.43,9.84s0.381,0.351,0.65,0.181
			c0.279-0.15,0.561-0.15,0.84,0C9.189,10.19,9.41,10.12,9.57,9.84z"/>
	</g>
</g>
</svg>
