<?xml version="1.0" encoding="utf-8"?>
<!-- Generator: Adobe Illustrator 16.0.0, SVG Export Plug-In . SVG Version: 6.00 Build 0)  -->
<!DOCTYPE svg PUBLIC "-//W3C//DTD SVG 1.1//EN" "http://www.w3.org/Graphics/SVG/1.1/DTD/svg11.dtd">
<svg version="1.1" id="Layer_1" xmlns="http://www.w3.org/2000/svg" xmlns:xlink="http://www.w3.org/1999/xlink" x="0px" y="0px"
	 width="17px" height="20px" viewBox="0 0 17 20" enable-background="new 0 0 17 20" xml:space="preserve">
<g>
	<g>
		<g>
			<path fill-rule="evenodd" clip-rule="evenodd" fill="#F7932D" d="M8.5,0C3.81,0,0,3.95,0,8.8c0,0.55,0.05,1.11,0.15,1.65
				l0.06,0.3c0.13,0.59,0.32,1.18,0.57,1.73c0.91,2.24,2.93,3.709,7.34,7.379C8.23,19.95,8.37,20,8.5,20s0.27-0.05,0.38-0.141
				c4.41-3.67,6.431-5.139,7.341-7.379c0.25-0.551,0.439-1.131,0.569-1.73l0.06-0.3C16.95,9.91,17,9.35,17,8.8
				C16.99,3.95,13.18,0,8.5,0z"/>
			<path fill-rule="evenodd" clip-rule="evenodd" fill="#FFFFFF" d="M8.5,1.12c-4.06,0-7.37,3.43-7.37,7.64
				c0,4.2,3.31,7.631,7.37,7.631c4.061,0,7.37-3.431,7.37-7.631C15.87,4.55,12.561,1.12,8.5,1.12z"/>
		</g>
	</g>
	<g>
		<path fill-rule="evenodd" clip-rule="evenodd" fill="#F7932D" d="M6.81,7.23v5.17c0,0.14,0.05,0.25,0.15,0.35S7.17,12.9,7.3,12.9
			c0.14,0,0.25-0.051,0.35-0.15S7.8,12.54,7.8,12.4V7.23C7.95,7.18,8.51,6.689,8.51,6.529V4.45c0-0.06-0.03-0.12-0.08-0.171
			C8.38,4.23,8.32,4.2,8.26,4.2c-0.07,0-0.13,0.03-0.18,0.079C8.03,4.33,8,4.391,8,4.45v1.62c0,0.07-0.02,0.119-0.07,0.17
			C7.88,6.29,7.82,6.32,7.75,6.32c-0.06,0-0.12-0.03-0.17-0.08C7.53,6.189,7.5,6.141,7.5,6.07V4.45c0-0.06-0.02-0.12-0.07-0.171
			C7.38,4.23,7.32,4.2,7.25,4.2c-0.06,0-0.12,0.03-0.17,0.079C7.03,4.33,7,4.391,7,4.45v1.62c0,0.07-0.02,0.119-0.07,0.17
			C6.88,6.29,6.82,6.32,6.75,6.32S6.63,6.29,6.58,6.24C6.53,6.189,6.5,6.141,6.5,6.07V4.45c0-0.06-0.02-0.12-0.07-0.171
			C6.38,4.23,6.32,4.2,6.25,4.2S6.12,4.23,6.07,4.279C6.03,4.33,6,4.391,6,4.45v2.079C6,6.689,6.66,7.18,6.81,7.23z"/>
		<path fill-rule="evenodd" clip-rule="evenodd" fill="#F7932D" d="M9.44,8.471h0.57V12.5c0,0.141,0.051,0.25,0.15,0.35
			c0.1,0.101,0.21,0.15,0.35,0.15c0.131,0,0.24-0.05,0.34-0.15C10.95,12.75,11,12.641,11,12.5V4.25c0-0.07-0.02-0.13-0.07-0.18
			C10.88,4.02,10.82,4,10.75,4h-0.18C10.221,4,9.93,4.12,9.68,4.359C9.44,4.609,9.32,4.9,9.32,5.24V8.35
			c0,0.03,0.01,0.061,0.03,0.09C9.38,8.46,9.41,8.471,9.44,8.471z"/>
	</g>
</g>
</svg>
