<?xml version="1.0" encoding="utf-8"?>
<!-- Generator: Adobe Illustrator 16.0.0, SVG Export Plug-In . SVG Version: 6.00 Build 0)  -->
<!DOCTYPE svg PUBLIC "-//W3C//DTD SVG 1.1//EN" "http://www.w3.org/Graphics/SVG/1.1/DTD/svg11.dtd">
<svg version="1.1" id="Layer_1" xmlns="http://www.w3.org/2000/svg" xmlns:xlink="http://www.w3.org/1999/xlink" x="0px" y="0px"
	 width="398.531px" height="124.193px" viewBox="0 0 398.531 124.193" enable-background="new 0 0 398.531 124.193"
	 xml:space="preserve">
<g>
	<g>
		<g>
			<path fill="#00AF41" d="M163.715,87.019c-9.748,0-14.684-4.995-14.684-12.277V58.013c0-7.402,4.936-12.277,14.684-12.277
				c4.635,0,9.389,0.603,12.819,1.264l-1.084,7.885c-3.491-0.543-8.847-0.963-11.735-0.963c-4.513,0-5.656,2.346-5.656,5.476v13.781
				c0,3.128,1.144,5.717,5.656,5.717c1.805,0,3.01-0.061,5.356-0.362V66.257h8.485v18.836
				C173.163,86.356,168.35,87.019,163.715,87.019"/>
			<path fill="#00AF41" d="M193.744,68.543v17.873h-8.666V57.11h7.222l0.603,2.827c1.806-1.203,5.535-2.948,7.883-3.431l0.723,8.186
				C198.919,65.715,195.609,67.219,193.744,68.543"/>
			<path fill="#00AF41" d="M219.982,74.554h-4.154c-1.865,0-2.586,1.813-2.586,3.438c0,1.625,0.662,2.287,2.346,2.287
				c1.807,0,3.07-0.421,4.395-1.024V74.554z M221.547,86.416l-0.602-1.865c-3.371,1.865-6.379,2.468-8.365,2.468
				c-5.416,0-7.643-3.912-7.643-8.907c0-5.898,2.707-9.576,8.725-9.576h6.32v-0.895c0-3.009-0.543-4.032-5.176-4.032
				c-2.59,0-5.176,0.302-7.943,0.843l-1.145-6.5c2.77-0.842,7.16-1.444,10.531-1.444c10.17,0,12.398,3.07,12.398,11.193v18.716
				H221.547z"/>
			<path fill="#00AF41" d="M252.961,86.416V67.038c0-1.323-0.604-2.105-2.107-2.105c-1.564,0-4.453,1.084-6.318,2.105v19.378h-8.666
				V57.109h6.439l0.902,2.226c3.611-1.744,8.305-2.828,11.674-2.828c4.996,0,6.74,3.731,6.74,9.389v20.521H252.961z"/>
			<path fill="#00AF41" d="M285.664,64.751c-1.506-0.36-3.73-0.721-5.537-0.721c-2.285,0-3.129,1.384-3.129,3.31v8.846
				c0,2.046,0.844,3.31,3.129,3.31c1.986,0,4.273-1.203,5.537-2.286V64.751z M268.332,67.34c0-6.921,3.01-10.832,9.869-10.832
				c2.408,0,5.477,0.361,7.463,0.842V45.134l8.664-1.204v42.486h-6.799l-0.904-2.346c-2.045,1.322-5.836,2.948-9.025,2.948
				c-5.957,0-9.268-3.672-9.268-10.833V67.34z"/>
		</g>
		<polygon fill="#95D600" points="310.879,64.15 310.275,86.417 301.551,86.417 303.234,46.338 312.262,46.338 321.891,71.854 
			331.52,46.338 340.547,46.338 342.23,86.417 333.506,86.417 332.902,64.15 325.922,81.24 317.859,81.24 		"/>
		<path fill="#95D600" d="M362.604,74.554h-4.152c-1.865,0-2.588,1.813-2.588,3.438c0,1.625,0.662,2.287,2.348,2.287
			c1.805,0,3.068-0.421,4.393-1.024V74.554z M364.17,86.416l-0.604-1.865c-3.369,1.865-6.379,2.468-8.363,2.468
			c-5.416,0-7.645-3.912-7.645-8.907c0-5.898,2.709-9.576,8.727-9.576h6.318v-0.895c0-3.009-0.541-4.032-5.174-4.032
			c-2.59,0-5.176,0.302-7.945,0.843l-1.143-6.5c2.768-0.842,7.16-1.444,10.531-1.444c10.17,0,12.396,3.07,12.396,11.193v18.716
			H364.17z"/>
		<path fill="#95D600" d="M387.639,87.019c-3.188,0-7.764-0.783-10.65-1.745l1.383-6.439c2.408,0.723,5.596,1.323,8.848,1.323
			c2.586,0,3.008-0.722,3.008-2.468c0-1.865-0.061-2.106-4.754-3.249c-7.102-1.745-7.764-3.671-7.764-9.146
			c0-6.199,2.408-8.786,11.193-8.786c2.227,0,6.318,0.3,8.906,0.963l-0.781,6.74c-2.588-0.481-5.777-0.844-8.064-0.844
			c-2.527,0-3.129,0.662-3.129,1.986c0,1.806,0.24,2.046,3.73,2.829c8.365,1.865,8.967,3.671,8.967,9.507
			C398.531,83.708,396.004,87.019,387.639,87.019"/>
	</g>
	<path fill="#95D600" d="M74.516,105.564h-3.961c-8.023,0-10.869-3.324-12.312-5.826c-2.095-3.632-2.291-7.911-2.308-8.865V55.888
		h41.219c8.023,0,10.867,3.324,12.311,5.825c2.096,3.633,2.291,7.912,2.309,8.865v34.728h18.629V70.508l-0.001-0.123
		c-0.216-16.488-10.581-33.126-33.247-33.126H37.307v53.687v0.122c0.217,16.489,10.58,33.126,33.248,33.126h3.961V105.564z"/>
	<path fill="#00AF41" d="M59.848,18.63c8.023,0,10.869,3.323,12.311,5.825c2.096,3.633,2.291,7.912,2.309,8.865v0.943h18.63v-1.015
		l-0.001-0.123C92.879,16.639,82.515,0,59.848,0H0v53.688v0.123c0.217,16.488,10.582,33.125,33.248,33.125h0.978V68.307h-0.978
		c-8.023,0-10.869-3.324-12.311-5.825c-2.096-3.633-2.292-7.912-2.309-8.865V18.63H59.848z"/>
	<polygon fill="#00AF41" points="74.467,58.873 74.467,62.097 74.516,62.097 74.516,86.936 93.096,86.936 93.096,58.873 	"/>
	<g>
		<path fill="#00AF41" d="M248.855,94.344v11.154h-2.115v-4.821h-5.23v4.821h-2.117V94.344h2.117v4.552h5.23v-4.552H248.855z"/>
		<path fill="#00AF41" d="M258.799,94.245c2.025,0,3.33,0.337,3.914,1.01c0.582,0.673,0.873,2.178,0.873,4.515
			c0,2.556-0.293,4.165-0.877,4.83c-0.586,0.664-2.004,0.996-4.254,0.996c-2.027,0-3.338-0.328-3.932-0.984
			s-0.891-2.102-0.891-4.335c0-2.658,0.293-4.328,0.875-5.01C255.09,94.586,256.521,94.245,258.799,94.245z M258.635,96.06
			c-1.422,0-2.252,0.183-2.492,0.548s-0.359,1.629-0.359,3.791c0,1.603,0.141,2.566,0.42,2.894c0.281,0.326,1.107,0.49,2.48,0.49
			c1.313,0,2.1-0.185,2.361-0.552c0.262-0.368,0.393-1.483,0.393-3.347c0-1.868-0.123-2.973-0.371-3.313
			C260.818,96.23,260.008,96.06,258.635,96.06z"/>
		<path fill="#00AF41" d="M272.809,96.239v9.259h-2.115v-9.259h-3.221v-1.896h8.67v1.896H272.809z"/>
		<path fill="#00AF41" d="M282.457,96.125v2.877h5.23v1.561h-5.23v3.154h5.564v1.781h-7.682V94.344h7.633v1.781H282.457z"/>
		<path fill="#00AF41" d="M295.063,94.344v9.259h5.23v1.896h-7.348V94.344H295.063z"/>
		<path fill="#00AF41" d="M311.26,100.293h3.734v1.781h-3.734V100.293z"/>
		<path fill="#00AF41" d="M328.969,94.344v9.259h5.23v1.896h-7.346V94.344H328.969z"/>
		<path fill="#00AF41" d="M340.514,96.125v2.877h5.23v1.561h-5.23v3.154h5.564v1.781h-7.682V94.344h7.633v1.781H340.514z"/>
		<path fill="#00AF41" d="M355.391,99.565h4.912l0.031,2.215c0,1.612-0.303,2.651-0.91,3.117s-1.963,0.698-4.066,0.698
			c-1.928,0-3.205-0.311-3.832-0.932c-0.627-0.62-0.939-1.887-0.939-3.8c0-2.44,0.125-3.981,0.375-4.625
			c0.311-0.784,0.783-1.313,1.414-1.585c0.633-0.272,1.705-0.409,3.221-0.409c1.982,0,3.262,0.212,3.84,0.634
			s0.867,1.357,0.867,2.807h-2.143c-0.037-0.729-0.197-1.184-0.477-1.36c-0.281-0.177-0.984-0.266-2.113-0.266
			c-1.225,0-2.004,0.152-2.332,0.458c-0.33,0.305-0.496,1.021-0.496,2.148l-0.008,1.12l0.018,1.43c0,1.106,0.162,1.811,0.49,2.112
			c0.326,0.303,1.084,0.454,2.271,0.454c1.154,0,1.889-0.128,2.201-0.385c0.314-0.256,0.471-0.86,0.471-1.813l0.008-0.458h-2.803
			V99.565z"/>
		<path fill="#00AF41" d="M367.285,94.344v11.154h-2.115V94.344H367.285z"/>
		<path fill="#00AF41" d="M379.359,103.357h-4.813l-0.695,2.141h-2.238l3.709-11.154h3.18l3.768,11.154h-2.199L379.359,103.357z
			 M378.869,101.796l-1.928-5.81l-1.896,5.81H378.869z"/>
		<path fill="#00AF41" d="M396.934,94.344v11.154h-3.586l-3.188-6.121c-0.158-0.305-0.406-0.839-0.744-1.602l-0.359-0.801
			l-0.352-0.801h-0.082l0.033,0.735l0.025,0.728l0.016,1.463v6.398h-2.117V94.344h3.588l2.9,5.654
			c0.256,0.502,0.553,1.109,0.891,1.822l0.426,0.907l0.426,0.915h0.072l-0.023-0.719l-0.025-0.719l-0.016-1.438v-6.423H396.934z"/>
	</g>
</g>
</svg>
